0.05	-9.697916666666666	46.46510416666667	-0.2864583333333334
0.060000000000000005	-10.791666666666664	55.69250000000001	-0.37500000000000017
0.07	-11.78125	64.90531250000001	-0.4593750000000001
0.08	-12.666666666666666	74.10666666666667	-0.5333333333333334
0.09	-13.447916666666666	83.2996875	-0.5906250000000001
0.1	-14.125	92.48750000000001	-0.6250000000000001
0.11	-14.697916666666666	101.67322916666667	-0.6302083333333335
0.12000000000000001	-15.166666666666666	110.86000000000001	-0.6000000000000001
0.13	-15.53125	120.0509375	-0.5281250000000001
0.14	-15.791666666666666	129.2491666666667	-0.4083333333333332
0.15000000000000002	-15.947916666666666	138.45781250000002	-0.23437499999999964
0.16	-16.	147.68	0.
0.16999999999999998	-15.947916666666666	156.91885416666665	0.3010416666666661
0.18	-15.791666666666666	166.1775	0.6749999999999997
0.19	-15.53125	175.45906250000002	1.128125
0.2	-15.166666666666666	184.76666666666668	1.6666666666666674
0.21000000000000002	-14.697916666666666	194.1034375	2.2968750000000013
0.22000000000000003	-14.124999999999998	203.47250000000003	3.025000000000002
0.22999999999999998	-13.447916666666668	212.87697916666667	3.8572916666666646
0.24	-12.666666666666668	222.32	4.8
0.25	-11.78125	231.8046875	5.859375
0.26	-10.791666666666664	241.33416666666668	7.041666666666669
0.27	-9.697916666666664	250.91156250000003	8.353125000000002
0.28	-8.499999999999996	260.54	9.800000000000004
0.29	-7.197916666666668	270.22260416666666	11.388541666666665
0.3	-5.791666666666668	279.9625	13.125
0.31	-4.28125	289.7628125	15.015625
0.32	-2.6666666666666643	299.62666666666667	17.06666666666667